<?xml version="1.0" encoding="utf-8"?>
<!-- Generator: Adobe Illustrator 16.0.0, SVG Export Plug-In . SVG Version: 6.00 Build 0)  -->
<svg version="1.2" baseProfile="tiny" id="Layer_1" xmlns="http://www.w3.org/2000/svg" xmlns:xlink="http://www.w3.org/1999/xlink"
	 x="0px" y="0px" width="100px" height="100px" viewBox="0 0 100 100" xml:space="preserve">
<path d="M69.949,91.513c-2.16,0-6.149-0.305-11.49-2.01c-9.856-3.146-19.607-9.496-28.981-18.871
	C14.886,56.039,8.596,44.805,8.449,33.064c-0.017-1.282,1.011-2.335,2.294-2.352c0.009,0,0.02,0,0.03,0
	c1.269,0,2.306,1.021,2.323,2.294c0.132,10.415,6.014,20.686,19.669,34.341C53.686,88.268,70.249,86.907,71.12,86.819
	c1.464-0.176,2.862-0.53,4.273-1.077c1.502-0.588,2.944-1.402,4.167-2.359c0.11-0.085,0.226-0.161,0.346-0.225l2.849-2.791
	c1.49-1.501,1.556-3.869,0.147-5.284L71.25,63.432c-1.413-1.408-3.784-1.337-5.283,0.161l-5.871,5.871
	c-0.732,0.73-1.859,0.891-2.765,0.393c-0.375-0.207-0.766-0.424-1.173-0.654c-3.813-2.11-9.05-5.014-14.631-10.599
	c-5.576-5.577-8.487-10.817-10.612-14.643l-0.118-0.211c-0.175-0.316-0.345-0.623-0.512-0.917c-0.521-0.91-0.367-2.056,0.376-2.796
	l5.876-5.873c1.5-1.5,1.569-3.871,0.156-5.285L25.04,17.221c-0.669-0.669-1.578-1.028-2.563-1.01
	c-1.007,0.019-1.963,0.427-2.697,1.149l-3.094,3.286c-0.573,0.741-1.089,1.553-1.54,2.417c-0.594,1.137-1.996,1.579-3.135,0.986
	c-1.137-0.593-1.58-1.996-0.986-3.135c0.598-1.146,1.292-2.229,2.065-3.215c0.042-0.055,0.089-0.108,0.137-0.159l3.195-3.392
	c0.016-0.017,0.032-0.033,0.049-0.05c1.59-1.592,3.692-2.491,5.917-2.532c2.26-0.045,4.366,0.801,5.936,2.37l11.655,11.658
	c3.224,3.228,3.152,8.544-0.157,11.854l-4.637,4.635c1.974,3.549,4.688,8.298,9.625,13.235c4.944,4.947,9.689,7.653,13.237,9.62
	l4.633-4.633c3.305-3.305,8.621-3.38,11.851-0.162l11.658,11.66c3.219,3.229,3.147,8.545-0.152,11.856
	c-0.008,0.006-0.015,0.013-0.021,0.019l-3.329,3.26c-0.234,0.231-0.51,0.403-0.805,0.515c-1.458,1.064-3.068,1.943-4.804,2.619
	c-1.789,0.696-3.561,1.141-5.425,1.364c-0.011,0.001-0.02,0.002-0.03,0.002C71.371,91.463,70.803,91.513,69.949,91.513z
	 M91.552,51.535c0-23.737-19.312-43.048-43.049-43.048c-1.282,0-2.323,1.04-2.323,2.323s1.041,2.324,2.323,2.324
	c21.177,0,38.403,17.227,38.403,38.401c0,1.283,1.041,2.324,2.323,2.324C90.513,53.86,91.552,52.819,91.552,51.535z M76.441,49.749
	c0-14.42-11.732-26.15-26.151-26.15c-1.282,0-2.323,1.04-2.323,2.323s1.039,2.324,2.323,2.324c11.856,0,21.505,9.647,21.505,21.504
	c0,1.283,1.039,2.325,2.323,2.325C75.401,52.075,76.441,51.033,76.441,49.749z"/>
</svg>
